…
``` r
iris <- as_tibble(iris) 
iris
```

    ## # A tibble: 150 x 5
    ##    Sepal.Length Sepal.Width Petal.Length Petal.Width Species
    ##           <dbl>       <dbl>        <dbl>       <dbl> <fct>  
    ##  1          5.1         3.5          1.4         0.2 setosa 
    ##  2          4.9         3            1.4         0.2 setosa 
    ##  3          4.7         3.2          1.3         0.2 setosa 
    ##  4          4.6         3.1          1.5         0.2 setosa 
    ##  5          5           3.6          1.4         0.2 setosa 
    ##  6          5.4         3.9          1.7         0.4 setosa 
    ##  7          4.6         3.4          1.4         0.3 setosa 
    ##  8          5           3.4          1.5         0.2 setosa 
    ##  9          4.4         2.9          1.4         0.2 setosa 
    ## 10          4.9         3.1          1.5         0.1 setosa 
    ## # … with 140 more rows
…
``` r
iris_new <- 
  rename( 
    iris, 
    sepal_length = Sepal.Length, 
    sepal_width = Sepal.Width, 
    petal_length = Petal.Length,
    petal_width = Petal.Width 
  )  

iris_new
```

    ## # A tibble: 150 x 5
    ##    sepal_length sepal_width petal_length petal_width Species
    ##           <dbl>       <dbl>        <dbl>       <dbl> <fct>  
    ##  1          5.1         3.5          1.4         0.2 setosa 
    ##  2          4.9         3            1.4         0.2 setosa 
    ##  3          4.7         3.2          1.3         0.2 setosa 
    ##  4          4.6         3.1          1.5         0.2 setosa 
    ##  5          5           3.6          1.4         0.2 setosa 
    ##  6          5.4         3.9          1.7         0.4 setosa 
    ##  7          4.6         3.4          1.4         0.3 setosa 
    ##  8          5           3.4          1.5         0.2 setosa 
    ##  9          4.4         2.9          1.4         0.2 setosa 
    ## 10          4.9         3.1          1.5         0.1 setosa 
    ## # … with 140 more rows

## Question 2

``` r
iris_numbers <- select(iris_new, sepal_length, sepal_width, petal_length, petal_width, Species)

iris_numbers 
```

    ## # A tibble: 150 x 5
    ##    sepal_length sepal_width petal_length petal_width Species
    ##           <dbl>       <dbl>        <dbl>       <dbl> <fct>  
    ##  1          5.1         3.5          1.4         0.2 setosa 
    ##  2          4.9         3            1.4         0.2 setosa 
    ##  3          4.7         3.2          1.3         0.2 setosa 
    ##  4          4.6         3.1          1.5         0.2 setosa 
    ##  5          5           3.6          1.4         0.2 setosa 
    ##  6          5.4         3.9          1.7         0.4 setosa 
    ##  7          4.6         3.4          1.4         0.3 setosa 
    ##  8          5           3.4          1.5         0.2 setosa 
    ##  9          4.4         2.9          1.4         0.2 setosa 
    ## 10          4.9         3.1          1.5         0.1 setosa 
    ## # … with 140 more rows

``` r
iris_cm <-
  mutate( 
    iris_numbers, 
    sepal_length = 10*sepal_length, 
    sepal_width = 10*sepal_width, 
    petal_length = 10*petal_length, 
    petal_width = 10*petal_width
  ) 

iris_cm
```

    ## # A tibble: 150 x 5
    ##    sepal_length sepal_width petal_length petal_width Species
    ##           <dbl>       <dbl>        <dbl>       <dbl> <fct>  
    ##  1           51          35           14           2 setosa 
    ##  2           49          30           14           2 setosa 
    ##  3           47          32           13           2 setosa 
    ##  4           46          31           15           2 setosa 
    ##  5           50          36           14           2 setosa 
    ##  6           54          39           17           4 setosa 
    ##  7           46          34           14           3 setosa 
    ##  8           50          34           15           2 setosa 
    ##  9           44          29           14           2 setosa 
    ## 10           49          31           15           1 setosa 
    ## # … with 140 more rows

## Question 3

``` r
iris_area <- mutate(iris_cm, sepal_area = sepal_length * sepal_width, 
                    petal_area = petal_length * petal_width) %>%
  select(petal_area, sepal_area, Species) 

iris_area
```

    ## # A tibble: 150 x 3
    ##    petal_area sepal_area Species
    ##         <dbl>      <dbl> <fct>  
    ##  1         28       1785 setosa 
    ##  2         28       1470 setosa 
    ##  3         26       1504 setosa 
    ##  4         30       1426 setosa 
    ##  5         28       1800 setosa 
    ##  6         68       2106 setosa 
    ##  7         42       1564 setosa 
    ##  8         30       1700 setosa 
    ##  9         28       1276 setosa 
    ## 10         15       1519 setosa 
    ## # … with 140 more rows
…
